NHSDataDictionaRy Workshop
…
---
class: inverse, middle, left
# Let's get scraping those data elements

---
## Starting with the nhs_data_elements() function

To retrieve the list of currrent NHS lookups in the table finder we use the underlying function:

```r
NHSDataDictionaRy::nhs_data_elements()
```

```
## # A tibble: 2,715 x 6
##    link_name     url       full_url    xpath_nat_code    xpath_default_cod~
##    <chr>         <chr>     <chr>       <chr>             <chr>             
##  1 ABBREVIATED ~ data_ele~ https://da~ "//*[@id=\"eleme~ "//*[@id=\"elemen~
##  2 ABDOMINAL X-~ data_ele~ https://da~ "//*[@id=\"eleme~ "//*[@id=\"elemen~
##  3 ABDOMINAL X-~ data_ele~ https://da~ "//*[@id=\"eleme~ "//*[@id=\"elemen~
##  4 ABDOMINAL X-~ data_ele~ https://da~ "//*[@id=\"eleme~ "//*[@id=\"elemen~
##  5 ABLATIVE THE~ data_ele~ https://da~ "//*[@id=\"eleme~ "//*[@id=\"elemen~
##  6 ABNORMALITY ~ data_ele~ https://da~ "//*[@id=\"eleme~ "//*[@id=\"elemen~
##  7 ACCESSIBLE I~ data_ele~ https://da~ "//*[@id=\"eleme~ "//*[@id=\"elemen~
##  8 ACCESSIBLE I~ data_ele~ https://da~ "//*[@id=\"eleme~ "//*[@id=\"elemen~
##  9 ACCESSIBLE I~ data_ele~ https://da~ "//*[@id=\"eleme~ "//*[@id=\"elemen~
## 10 ACCESSIBLE I~ data_ele~ https://da~ "//*[@id=\"eleme~ "//*[@id=\"elemen~
## # ... with 2,705 more rows, and 1 more variable: xpath_also_known <chr>
```
…
